<svg version="1.1" xmlns="http://www.w3.org/2000/svg" xmlns:xlink="http://www.w3.org/1999/xlink"
     width="130" height="330" style="cursor:pointer;" onload="switch_lights();">
  <g>
  <linearGradient id="back" x1="0" y1="0" x2="0.4" y2="0.9">
    <stop stop-color="#5c656c" offset="0" />
    <stop stop-color="#aab2b7" offset="1" />
  </linearGradient>
  <radialGradient cx="0.5" cy="0.5" r="0.5" fx="0.5" fy="0.5" id="r">
    <stop stop-color="#fc7474" offset="0" />
    <stop stop-color="#d53a3a" offset="0.7" />
    <stop stop-color="#af0000" offset="1" />
  </radialGradient>
  <radialGradient cx="0.5" cy="0.5" r="0.5" fx="0.5" fy="0.5" id="y">
    <stop stop-color="#fcfc74" offset="0" />
    <stop stop-color="#d4d53a" offset="0.7" />
    <stop stop-color="#afa500" offset="1" />
  </radialGradient>
  <radialGradient cx="0.5" cy="0.5" r="0.5" fx="0.5" fy="0.5" id="g">
    <stop stop-color="#74fc94" offset="0" />
    <stop stop-color="#3ad55e" offset="0.7" />
    <stop stop-color="#00af29" offset="1" />
  </radialGradient>
  <radialGradient cx="0.5" cy="0.5" r="0.5" fx="0.5" fy="0.5" id="b">
    <stop stop-color="#4d4d4d" offset="0" />
    <stop stop-color="#1a1a1a" offset="0.7" />
    <stop stop-color="#000000" offset="1" />
  </radialGradient>
  <linearGradient x1="0" y1="0" x2="0" y2="1.05" id="rg">
    <stop stop-color="#fff" stop-opacity="0.9" offset="0" />
    <stop stop-color="#fff" stop-opacity="0.2" offset="0.7" />
    <stop stop-color="#fff" stop-opacity="0.3" offset="1" />
  </linearGradient>
  <path d="M 35,50 A 34,34 0 0,1 95,50 Q 98,55 95,60 Q 65,78 35,60 Q 32,55 35,50 z" fill="url(#rg)" id="reflex" />
  <rect width="120" height="320" x="5" y="5" fill="url(#back)" stroke="#000" stroke-width="10" />
  <circle cx="65" cy="65" r="40"  stroke="#000" stroke-width="8" id="redlight"/>
  <circle cx="65" cy="165" r="40" stroke="#000" stroke-width="8" id="yellight" />
  <circle cx="65" cy="265" r="40" stroke="#000" fill="url(#g)" stroke-width="8" id="grelight" />
  <use xlink:href="#reflex" />
  <use xlink:href="#reflex" transform="translate(0,100)" />
  <use xlink:href="#reflex" transform="translate(0,200)" />
  </g>
</svg>
